…
l’ancien code est correct, il permet l’itération sur l’ensemble des fichiers mais il manque le nom de la norme, pour y arriver, on créé un tibble

resultat2 <- tibble(Normes = basename(file_path)) %>%
  mutate(content = file_path %>% map(function(path) {
    keyword_search(path,
      keyword = c("discount rate"),
      path = TRUE, surround_lines = 1
    )
  }))
resultat2

## # A tibble: 40 x 2
##    Normes                                                      content          
##    <chr>                                                       <named list>     
##  1 IAS 1 Presentation of financial statements.pdf              <tibble[,5] [1 x~
##  2 IAS 10 Events after the balance sheet date.pdf              <tibble[,5] [0 x~
##  3 IAS 11 Construction contracts.pdf                           <tibble[,5] [0 x~
##  4 IAS 12 Income taxes.pdf                                     <tibble[,5] [0 x~
##  5 IAS 16 Property, plant and equipment.pdf                    <tibble[,5] [0 x~
##  6 IAS 17 Leases.pdf                                           <tibble[,5] [2 x~
##  7 IAS 18 Revenue.pdf                                          <tibble[,5] [0 x~
##  8 IAS 19 Employee benefits.pdf                                <tibble[,5] [20 ~
##  9 IAS 2 Inventories.pdf                                       <tibble[,5] [0 x~
## 10 IAS 20 Accounting for government grants and disclosure of ~ <tibble[,5] [0 x~
## # ... with 30 more rows

El Voilà :)
on peut transformer ce tibble en dataframe pour explorer plus.

resultat2_df <- resultat2 %>% tidyr::unnest(cols = c(content))
resultat2_df

## # A tibble: 108 x 6
##    Normes                      keyword    page_num line_num line_text token_text
##    <chr>                       <chr>         <int>    <int> <list>    <list>    
##  1 IAS 1 Presentation of fina~ discount ~        7      302 <chr [3]> <list [3]>
##  2 IAS 17 Leases.pdf           discount ~        1       27 <chr [3]> <list [3]>
##  3 IAS 17 Leases.pdf           discount ~        2       68 <chr [3]> <list [3]>
##  4 IAS 19 Employee benefits.p~ discount ~        4      151 <chr [3]> <list [3]>
##  5 IAS 19 Employee benefits.p~ discount ~        5      178 <chr [3]> <list [3]>
##  6 IAS 19 Employee benefits.p~ discount ~        5      189 <chr [3]> <list [3]>
##  7 IAS 19 Employee benefits.p~ discount ~        6      268 <chr [3]> <list [3]>
##  8 IAS 19 Employee benefits.p~ discount ~        6      270 <chr [3]> <list [3]>
##  9 IAS 19 Employee benefits.p~ discount ~        7      272 <chr [3]> <list [3]>
## 10 IAS 19 Employee benefits.p~ discount ~        7      276 <chr [3]> <list [3]>
## # ... with 98 more rows
…
On veut accéder au paragraphe; par exemple pour la norme - IFRS 13 Faire Value

IFRS_13 <- resultat2_df %>% filter(Normes == "IFRS 13 Fair Value Measurement.pdf")
IFRS_13

## # A tibble: 21 x 6
##    Normes                     keyword     page_num line_num line_text token_text
##    <chr>                      <chr>          <int>    <int> <list>    <list>    
##  1 IFRS 13 Fair Value Measur~ discount r~        6      273 <chr [3]> <list [3]>
##  2 IFRS 13 Fair Value Measur~ discount r~        6      276 <chr [3]> <list [3]>
##  3 IFRS 13 Fair Value Measur~ discount r~        6      279 <chr [3]> <list [3]>
##  4 IFRS 13 Fair Value Measur~ discount r~        6      280 <chr [3]> <list [3]>
##  5 IFRS 13 Fair Value Measur~ discount r~        6      281 <chr [3]> <list [3]>
##  6 IFRS 13 Fair Value Measur~ discount r~        6      282 <chr [3]> <list [3]>
##  7 IFRS 13 Fair Value Measur~ discount r~        6      286 <chr [3]> <list [3]>
##  8 IFRS 13 Fair Value Measur~ discount r~        7      297 <chr [3]> <list [3]>
##  9 IFRS 13 Fair Value Measur~ discount r~        7      298 <chr [3]> <list [3]>
## 10 IFRS 13 Fair Value Measur~ discount r~        7      299 <chr [3]> <list [3]>
## # ... with 11 more rows
…
