…
On va utiliser grid_latin_hypercube afin que nous puissions couvrir l’espace des hyperparamètres le mieux possible

xgb_grid <- grid_latin_hypercube(
  trees(),
  tree_depth(),
  min_n(),
  loss_reduction(),
  sample_size = sample_prop(),
  finalize(mtry(), train_data),
  learn_rate(),
  size = 50
)
xgb_grid

## # A tibble: 50 x 7
##    trees tree_depth min_n loss_reduction sample_size  mtry learn_rate
##    <int>      <int> <int>          <dbl>       <dbl> <int>      <dbl>
##  1    32          1    33   0.00122            0.128    12   7.92e- 5
##  2  1667          6    23   0.00000428         0.754    14   4.51e- 5
##  3  1846          9     7   0.0000000700       0.513     2   4.77e- 2
##  4   697          7    11   0.000000112        0.651     4   5.39e- 3
##  5   235         13    21   0.00000260         0.240     5   1.19e- 6
##  6   785         13    19   0.0000000144       0.211    12   1.70e- 3
##  7  1336         11    26   0.0852             0.270     9   5.46e- 8
##  8  1185          2     2   0.0000319          0.354    12   2.47e-10
##  9  1623          1    29   0.0000566          0.538     8   6.50e-10
## 10   181          7    15   0.0000170          0.967    10   4.41e- 6
## # ... with 40 more rows
…
